﻿plains = {
	color = hsv { 0.1 0.5 0.8 }
	
	province_modifier = {
		supply_limit = 0
	}
	
	audio_parameter = 1.0
}

farmlands = {
	color = hsv { 0 1 1 }
	
	province_modifier = {
		supply_limit = 1000
	}
	
	audio_parameter = 1.0
}

hills = {
	color = hsv { 29 0.867 0.353 }
	
	province_modifier = {
		supply_limit = -100
	}
	
	defender_combat_effects = {
		name = combat_hills
		image = combat_hills
		advantage = 8
	}
	
	movement_speed = 0.8
	combat_width = 0.8
	
	audio_parameter = 1.0
}

mountains = {
	color = hsv { 0 0 0.392 }
	
	province_modifier = {
		supply_limit = -600
	}
	
	defender_combat_effects = {
		name = combat_mountain
		image = combat_mountain
		advantage = 15
	}
	
	defender_modifier = {
		retreat_losses = -0.3
	}
	
	movement_speed = 0.5
	combat_width = 0.5
	
	audio_parameter = 6.0
}

desert = {
	color = hsv { 0.15 1 1 } #{ 225 255 0 }
	
	province_modifier = {
		supply_limit = -600
	}
	
	movement_speed = 0.7
	
	audio_parameter = 2.0
}

desert_mountains = {
	color = hsv { 0.7 0.5 0.15 }
	
	province_modifier = {
		supply_limit = -1000
	}
	
	defender_combat_effects = {
		name = combat_desert_mountains
		image = defender_desert_mountains
		advantage = 15
	}
	
	defender_modifier = {
		retreat_losses = -0.3
	}
	
	movement_speed = 0.5
	combat_width = 0.5
	
	audio_parameter = 7.0
}

oasis = {
	color = hsv { 0.7 0.3 0.8 }
	
	province_modifier = {
		supply_limit = 200
	}
	
	movement_speed = 1
	
	audio_parameter = 10.0
}

jungle = {
	color = { 10 60 35 }
	
	province_modifier = {
		supply_limit = -500
	}
	
	defender_combat_effects = {
		name = combat_jungle
		image = defender_jungle
		advantage = 6
	}
	
	movement_speed = 0.5
	combat_width = 0.7
	
	audio_parameter = 8.0
}

forest = {
	color = hsv { 0.3 0.75 0.7 } #50 255 25
	
	province_modifier = {
		supply_limit = -200
	}
	
	defender_combat_effects = {
		name = combat_forest
		image = defender_forest
		advantage = 3
	}
	
	movement_speed = 0.8
	combat_width = 0.9

	audio_parameter = 4.0
}

taiga = {
	color = hsv { 0.4 0.7 0.6 } #0 90 0
	
	province_modifier = {
		supply_limit = -400
	}
	
	defender_combat_effects = {
		name = combat_taiga
		image = defender_taiga
		advantage = 4
	}
	
	movement_speed = 0.8
	combat_width = 0.8
	
	audio_parameter = 9.0
}

wetlands = {
	color = hsv { 0.5 0.5 0.6 } #75 200 200
	
	province_modifier = {
		supply_limit = -500
	}
	
	attacker_modifier = {
		hard_casualty_modifier = 0.2
		retreat_losses = 0.25
	}
	
	defender_modifier = {
		hard_casualty_modifier = 0.2
		retreat_losses = 0.25
	}
	
	defender_combat_effects = {
		name = combat_wetlands
		image = defender_wetlands
		advantage = 5
	}
	
	movement_speed = 0.7
	combat_width = 0.6
	
	audio_parameter = 3.0
}

steppe = {
	color = { 200 100 25 }
	
	province_modifier = {
		supply_limit = 0
	}
	
	audio_parameter = 5.0
}

floodplains = {
	color = hsv { 0.7 0.8 0.6 } #200 50 100
	
	province_modifier = {
		supply_limit = 600
	}
	
	combat_width = 0.75
	
	audio_parameter = 2.0
}

drylands = {
	color = { 220 45 120 }
	
	province_modifier = {
		supply_limit = -500
	}
	
	audio_parameter = 1.0
}
